<?xml version="1.0" encoding="UTF-8" standalone="no"?>
<svg
   xmlns:dc="http://purl.org/dc/elements/1.1/"
   xmlns:cc="http://creativecommons.org/ns#"
   xmlns:rdf="http://www.w3.org/1999/02/22-rdf-syntax-ns#"
   xmlns:svg="http://www.w3.org/2000/svg"
   xmlns="http://www.w3.org/2000/svg"
   xmlns:sodipodi="http://sodipodi.sourceforge.net/DTD/sodipodi-0.dtd"
   xmlns:inkscape="http://www.inkscape.org/namespaces/inkscape"
   width="339.91998mm"
   height="104.01637mm"
   viewBox="0 0 339.91998 104.01638"
   version="1.1"
   id="svg8"
   inkscape:version="1.0.1 (3bc2e813f5, 2020-09-07)"
   sodipodi:docname="fonts-unicode-data.svg"
   inkscape:export-filename="/home/santhosh/Documents/malayalam/digitaltypography/images/fonts-unicode-data.png"
   inkscape:export-xdpi="300"
   inkscape:export-ydpi="300">
  <defs
     id="defs2">
    <marker
       style="overflow:visible"
       id="Arrow1Mend"
       refX="0"
       refY="0"
       orient="auto"
       inkscape:stockid="Arrow1Mend"
       inkscape:isstock="true">
      <path
         transform="matrix(-0.4,0,0,-0.4,-4,0)"
         style="fill:#005c94;fill-opacity:1;fill-rule:evenodd;stroke:#005c94;stroke-width:1pt;stroke-opacity:1"
         d="M 0,0 5,-5 -12.5,0 5,5 Z"
         id="path1202" />
    </marker>
    <marker
       style="overflow:visible"
       id="Arrow1Lend"
       refX="0"
       refY="0"
       orient="auto"
       inkscape:stockid="Arrow1Lend"
       inkscape:isstock="true">
      <path
         transform="matrix(-0.8,0,0,-0.8,-10,0)"
         style="fill:#000000;fill-opacity:1;fill-rule:evenodd;stroke:#000000;stroke-width:1pt;stroke-opacity:1"
         d="M 0,0 5,-5 -12.5,0 5,5 Z"
         id="path1196" />
    </marker>
    <marker
       style="overflow:visible"
       id="Arrow1Lstart"
       refX="0"
       refY="0"
       orient="auto"
       inkscape:stockid="Arrow1Lstart"
       inkscape:isstock="true">
      <path
         transform="matrix(0.8,0,0,0.8,10,0)"
         style="fill:#000000;fill-opacity:1;fill-rule:evenodd;stroke:#000000;stroke-width:1pt;stroke-opacity:1"
         d="M 0,0 5,-5 -12.5,0 5,5 Z"
         id="path1193" />
    </marker>
    <rect
       x="238.18626"
       y="101.31301"
       width="207.30742"
       height="132.14281"
       id="rect1001" />
    <rect
       x="353.50024"
       y="321.27908"
       width="0"
       height="223.98395"
       id="rect995" />
    <rect
       x="238.18626"
       y="101.31301"
       width="207.30742"
       height="132.14281"
       id="rect1001-4" />
    <rect
       x="238.18626"
       y="101.31301"
       width="207.30742"
       height="132.14281"
       id="rect1033" />
    <rect
       x="238.18626"
       y="101.31301"
       width="207.30742"
       height="132.14281"
       id="rect1001-3" />
    <rect
       x="238.18626"
       y="101.31301"
       width="207.30742"
       height="132.14281"
       id="rect1065" />
    <rect
       x="238.18626"
       y="101.31301"
       width="164.62984"
       height="15.099829"
       id="rect1001-3-1" />
    <rect
       x="238.18626"
       y="101.31301"
       width="207.30742"
       height="132.14281"
       id="rect1096" />
    <marker
       style="overflow:visible"
       id="Arrow1Mend-7"
       refX="0"
       refY="0"
       orient="auto"
       inkscape:stockid="Arrow1Mend"
       inkscape:isstock="true">
      <path
         transform="matrix(-0.4,0,0,-0.4,-4,0)"
         style="fill:#005c94;fill-opacity:1;fill-rule:evenodd;stroke:#005c94;stroke-width:1pt;stroke-opacity:1"
         d="M 0,0 5,-5 -12.5,0 5,5 Z"
         id="path1202-6" />
    </marker>
    <rect
       x="238.18626"
       y="101.31301"
       width="127.5095"
       height="35.589111"
       id="rect1001-3-1-0" />
    <rect
       x="238.18626"
       y="101.31301"
       width="164.62984"
       height="15.099829"
       id="rect1718" />
    <marker
       style="overflow:visible"
       id="Arrow1Mend-7-7"
       refX="0"
       refY="0"
       orient="auto"
       inkscape:stockid="Arrow1Mend"
       inkscape:isstock="true">
      <path
         transform="matrix(-0.4,0,0,-0.4,-4,0)"
         style="fill:#005c94;fill-opacity:1;fill-rule:evenodd;stroke:#005c94;stroke-width:1pt;stroke-opacity:1"
         d="M 0,0 5,-5 -12.5,0 5,5 Z"
         id="path1202-6-6" />
    </marker>
    <rect
       x="238.18626"
       y="101.31301"
       width="94.368256"
       height="46.756126"
       id="rect1001-3-1-0-3" />
    <rect
       x="238.18626"
       y="101.31301"
       width="94.368256"
       height="46.756126"
       id="rect1852" />
    <rect
       x="238.18626"
       y="101.31301"
       width="207.30742"
       height="132.14281"
       id="rect1001-3-0" />
    <rect
       x="238.18626"
       y="101.31301"
       width="207.30742"
       height="132.14281"
       id="rect1931" />
    <marker
       style="overflow:visible"
       id="Arrow1Mend-5"
       refX="0"
       refY="0"
       orient="auto"
       inkscape:stockid="Arrow1Mend"
       inkscape:isstock="true">
      <path
         transform="matrix(-0.4,0,0,-0.4,-4,0)"
         style="fill:#005c94;fill-opacity:1;fill-rule:evenodd;stroke:#005c94;stroke-width:1pt;stroke-opacity:1"
         d="M 0,0 5,-5 -12.5,0 5,5 Z"
         id="path1202-8" />
    </marker>
    <marker
       style="overflow:visible"
       id="Arrow1Mend-0"
       refX="0"
       refY="0"
       orient="auto"
       inkscape:stockid="Arrow1Mend"
       inkscape:isstock="true">
      <path
         transform="matrix(-0.4,0,0,-0.4,-4,0)"
         style="fill:#005c94;fill-opacity:1;fill-rule:evenodd;stroke:#005c94;stroke-width:1pt;stroke-opacity:1"
         d="M 0,0 5,-5 -12.5,0 5,5 Z"
         id="path1202-9" />
    </marker>
    <rect
       x="238.18626"
       y="101.31301"
       width="164.62984"
       height="15.099829"
       id="rect1001-3-1-2" />
    <rect
       x="238.18626"
       y="101.31301"
       width="164.62984"
       height="15.099829"
       id="rect2180" />
    <marker
       style="overflow:visible"
       id="Arrow1Mend-4"
       refX="0"
       refY="0"
       orient="auto"
       inkscape:stockid="Arrow1Mend"
       inkscape:isstock="true">
      <path
         transform="matrix(-0.4,0,0,-0.4,-4,0)"
         style="fill:#005c94;fill-opacity:1;fill-rule:evenodd;stroke:#005c94;stroke-width:1pt;stroke-opacity:1"
         d="M 0,0 5,-5 -12.5,0 5,5 Z"
         id="path1202-90" />
    </marker>
    <rect
       x="238.18626"
       y="101.31301"
       width="164.62984"
       height="15.099829"
       id="rect1001-3-1-2-3" />
    <rect
       x="238.18626"
       y="101.31301"
       width="164.62984"
       height="15.099829"
       id="rect2634" />
    <rect
       x="238.18626"
       y="101.31301"
       width="127.5095"
       height="35.589111"
       id="rect1001-3-1-0-9" />
    <rect
       x="238.18626"
       y="101.31301"
       width="127.5095"
       height="35.589111"
       id="rect2971" />
  </defs>
  <sodipodi:namedview
     id="base"
     pagecolor="#ffffff"
     bordercolor="#666666"
     borderopacity="1.0"
     inkscape:pageopacity="0.0"
     inkscape:pageshadow="2"
     inkscape:zoom="0.98994949"
     inkscape:cx="662.61351"
     inkscape:cy="271.28472"
     inkscape:document-units="mm"
     inkscape:current-layer="a-person/bust"
     inkscape:document-rotation="0"
     showgrid="false"
     inkscape:window-width="1920"
     inkscape:window-height="1015"
     inkscape:window-x="1920"
     inkscape:window-y="0"
     inkscape:window-maximized="1">
    <inkscape:grid
       type="xygrid"
       id="grid2419"
       originx="139.48751"
       originy="71.993803" />
  </sodipodi:namedview>
  <metadata
     id="metadata5">
    <rdf:RDF>
      <cc:Work
         rdf:about="">
        <dc:format>image/svg+xml</dc:format>
        <dc:type
           rdf:resource="http://purl.org/dc/dcmitype/StillImage" />
        <dc:title></dc:title>
      </cc:Work>
    </rdf:RDF>
  </metadata>
  <g
     inkscape:label="Layer 1"
     inkscape:groupmode="layer"
     id="layer1"
     transform="translate(121.98386,60.703304)">
    <g
       id="a-person/bust"
       style="fill:none;fill-rule:evenodd;stroke:none;stroke-width:1"
       transform="matrix(0.26458333,0,0,0.26458333,-1.8609911,-3.2666793)">
      <rect
         style="fill:#ffffff;stroke:#9eabb0;stroke-width:4.82677;stroke-linecap:round;stroke-linejoin:bevel;paint-order:stroke fill markers"
         id="rect1007"
         width="167.20572"
         height="119.87402"
         x="-58.963673"
         y="-188.20667"
         ry="10.864671"
         inkscape:export-xdpi="300"
         inkscape:export-ydpi="300" />
      <g
         id="body/Button-Shirt-1"
         transform="matrix(2.0189149,0,0,2.0189149,-383.97125,-45.123802)"
         inkscape:export-xdpi="300"
         inkscape:export-ydpi="300">
        <path
           d="m 52.65296,20.727504 c -0.16944,-0.09447 -0.0203,-0.336681 0.15,-0.25658 8.18556,3.841503 14.46507,10.581253 18.88352,18.368455 4.57523,8.063297 7.18287,17.218177 4.58175,13.036137 C 73.66711,47.693476 67.99204,29.274721 52.65296,20.727504 Z M 4.34981,1.0796196 c 0.0319,-0.024728 0.08176,-0.035507 0.112183,0 0.500282,0.5834805 0.39883,1.4755969 0.414953,2.2149942 l 0.0019,0.068857 c 0.03592,1.0810568 0.04268,2.1587319 0.03908,3.2404227 l -0.0112,3.4431075 v 0 c -0.0015,0.473425 -0.0399,0.966221 -0.01562,1.442466 l 0.01266,0.184297 v 0 c 0.262817,0.269261 0.38493,0.658357 0.295775,1.049143 -0.01606,0.501323 -0.278028,0.919585 -0.660211,1.182505 l 0.819111,1.162532 v 0 l 0.819903,1.161899 c 1.68993,2.397769 3.398451,4.774191 5.179014,7.106019 1.815634,2.37748 3.752535,4.665347 5.779437,6.86508 0.990211,1.074928 1.997324,2.13485 3.027887,3.1711 0.418785,0.421169 0.848028,0.831875 1.272488,1.247188 l 0.422301,0.417407 c 0.249499,0.249605 0.563449,0.496462 0.729079,0.812853 0.0974,0.186623 0.11958,0.646521 0.15444,0.722607 0.31268,0.687523 -0.22078,1.783796 -1.107252,1.440775 l 0.04023,-0.02678 c 0.161399,-0.112297 0.05798,-0.113925 -0.310437,-0.0047 -0.232394,-7.69e-4 -0.450297,-0.05429 -0.653866,-0.160239 l -0.06064,-0.03336 C 20.364333,37.64205 20.108442,37.359991 19.875523,37.134437 l -0.05776,-0.0551 C 19.285157,36.580127 18.777481,36.050695 18.267058,35.528871 17.201636,34.440206 16.160298,33.328292 15.152129,32.186578 13.140861,29.908644 11.234171,27.53835 9.428467,25.094507 7.589171,22.605435 5.879594,19.988495 4.409382,17.26419 3.851425,16.230264 3.339946,15.176472 2.849594,14.110421 1.895087,13.803963 1.673467,12.788425 1.740016,11.644386 1.387833,10.823924 1.070509,9.986554 0.88290297,9.131008 0.85734297,9.0137086 1.007974,8.9031724 1.098185,9.0056773 1.403467,9.3527145 1.686143,9.7221548 1.957833,10.101106 2.121777,9.2990315 2.329241,8.5607849 2.426847,8.0901078 L 2.850016,6.0129571 v 0 c -2.38457703,-0.124274 -4.9975351,0.8557574 -6.6414081,2.571499 -0.08831,0.4467946 -0.432043,0.7665676 -0.767113,1.1841957 -0.382817,0.4774402 -0.716831,1.0132132 -0.965916,1.5735032 -0.552464,1.241894 -0.240633,3.071976 -1.312816,3.983107 -0.111761,0.0949 -0.23662,0.160838 -0.365493,0.201629 0.508768,2.495563 0.277883,5.245421 0.266792,7.777215 l -3.84e-4,0.222816 c 0.0025,2.833573 -0.09211,5.669471 -0.201549,8.50072 l -0.111338,2.802077 c -0.144271,3.737059 -0.237972,7.47593 0.12507,11.192483 1.657395,-1.468462 3.371197,-2.869926 5.143944,-4.205026 1.16563407,-0.87809 2.35463707,-1.724952 3.5652301,-2.539993 l 0.983649,-0.657514 c 1.178704,-0.790721 2.386044,-1.604344 3.676614,-2.170579 1.688028,-0.74036 3.293239,-0.485894 4.922958,0.273487 1.622957,0.756423 3.197535,1.635006 4.789436,2.454834 1.619155,0.833566 3.24169,1.660157 4.863169,2.488861 1.074085,0.549088 2.648029,1.044705 3.435839,2.055382 0.0503,-0.223609 0.10881,-0.446583 0.17727,-0.668713 -0.0782,-0.338794 -0.048,-0.704853 0.14197,-1.053792 2.64718,-4.865918 5.09641,-9.848078 7.52852,-14.82411 1.23104,-2.518238 2.40148,-5.066278 3.63486,-7.583037 l 1.199,-2.451194 c 0.20034,-0.408328 0.40128,-0.816352 0.60332,-1.223765 0.30253,-0.609957 0.61754,-1.213996 0.92345,-1.822473 0.1293,-0.257063 0.29134,-0.512417 0.41723,-0.771919 l 0.0596,-0.130124 c 0.003,-0.0068 0.29338,-0.920671 0.069,-0.833561 l -0.0193,0.0093 c -0.11451,0.06489 -0.2062,-0.07926 -0.13204,-0.171193 0.31732,-0.392478 0.75929,-0.04481 0.94035,0.318505 0.4989,0.999843 -0.41521,2.569345 -0.76684,3.526743 l -0.0193,0.05353 C 37.9226,19.18558 36.6871,22.2174 35.42118,25.238653 32.99392,31.03113 30.38646,36.734629 27.7847,42.448062 l -0.0309,0.09828 v 0 c 0.55479,-0.425448 1.14719,-0.811585 1.65444,-1.187366 1.27965,-0.948329 2.59669,-1.849949 3.91162,-2.748611 2.41142,-1.648136 4.8882,-3.187604 7.40598,-4.666294 l 0.50409,-0.294943 c 1.25768,-0.732962 2.50352,-1.327279 3.99634,-1.107264 1.38689,0.20451 2.67626,0.949761 3.92918,1.555153 l 0.12948,0.0621 3.87148,1.841283 C 52.74254,34.349332 52.29444,32.706295 51.8269,31.069387 50.91507,27.876518 49.91176,24.71049 48.82373,21.572784 47.80754,18.641144 46.709,15.741578 45.54707,12.864947 L 45.19718,12.001604 C 44.72345,10.817201 44.25237,9.5256777 42.89831,9.1610267 41.54514,8.7964475 39.99296,9.3370815 38.7562,8.5654416 38.6438,8.4952736 38.6578,8.3099191 38.794,8.2756804 l 0.76315,-0.1924163 c 1.43287,-0.3565775 3.11265,-0.7152816 4.46763,-0.3685074 1.47444,0.3778943 2.6943,1.615773 3.40965,2.9026853 0.79539,1.431581 1.35607,3.033687 1.95971,4.560239 l 0.0957,0.240371 c 0.69275,1.727577 1.35908,3.465511 1.99669,5.214435 1.27479,3.495733 2.43528,7.033526 3.4857,10.603232 0.5062,1.720392 0.98641,3.449026 1.44803,5.181887 0.13268,0.498364 0.35155,1.102615 0.53113,1.732861 0.20577,0.200783 0.40056,0.424814 0.58331,0.680337 0.30317,0.423968 0.0856,0.921064 -0.29134,1.174896 -0.0146,0.433691 -0.11091,0.841597 -0.3412,1.19117 -0.89894,1.365112 -3.27549,1.013425 -3.17894,-0.82173 0.0146,-0.280884 0.12401,-0.549088 0.28965,-0.775655 l -0.005,-0.03678 v 0 l -0.0188,-0.06721 v 0 c -0.41261,-0.197823 -0.8269,-0.418262 -1.26359,-0.634051 l -4.0631,-2.008461 v 0 c -1.17676,-0.581848 -2.48113,-1.480721 -3.78972,-1.702427 -1.21996,-0.206647 -2.50711,0.702624 -3.55542,1.251237 l -0.068,0.03525 c -2.53416,1.299382 -5.04951,2.641879 -7.55493,3.995366 -1.22303,0.660892 -2.43021,1.34926 -3.64859,2.017973 -1.01874,0.559233 -2.11817,1.361941 -3.26324,1.677487 -0.48909,0.380431 -1.07007,0.329495 -1.53697,0.04185 0.21338,1.321997 0.20029,2.678654 0.26578,4.030239 0.0881,1.806904 0.10152,3.618818 0.13059,5.428171 l 0.0118,0.678373 c 0.0769,4.000016 0.1181,8.001088 -1.13242,6.842466 -1.25053,-1.158622 -1.11659,-4.737206 -0.95772,-8.316634 0.071,-1.598178 0.13923,-3.194738 0.24533,-4.790529 l 0.0479,-0.683866 c 0.033,-0.446161 0.0596,-0.886826 0.0919,-1.323476 -1.44148,0.526685 -2.759788,-0.448485 -4.056549,-1.115718 -1.494507,-0.769104 -2.98838,-1.539476 -4.483521,-2.3071 l -1.49633,-0.766294 v 0 L 10.91812,40.316802 C 9.56981,39.628434 8.531007,38.943447 7.092908,39.750805 c -5.180915,2.907758 -9.9418311,6.776736 -14.2563381,10.836564 -0.827323,0.778615 -2.575563,0.569378 -2.78514,-0.735499 -0.8952089,-5.574479 -0.3507549,-11.229638 0.106292,-16.821022 l 0.168485,-2.075867 c 0.204166,-2.479379 0.426525,-4.958782 0.722828,-7.428058 0.132507,-1.104601 0.264473,-2.208526 0.410502,-3.311017 l 0.112385,-0.826588 c 0.182536,-1.306779 0.301691,-2.605738 0.690846,-3.859045 -0.122747,-0.03973 -0.240845,-0.10483 -0.346479,-0.20501 -1.17,-1.110434 -0.605916,-3.037315 -0.07204,-4.358254 0.527113,-1.30382 1.330986,-2.4417299 2.337676,-3.4211272 0.219508,-0.2138865 0.529015,-0.3514755 0.840001,-0.3586615 C -2.5373001,5.5695452 0.14030597,4.7621871 2.927137,5.6452086 3.005417,5.2708016 3.085231,4.8969889 3.169269,4.5241274 L 3.254809,4.1515961 C 3.471569,3.2265159 3.552062,1.6984532 4.34981,1.0796196 Z M -9.8308101,14.190155 c 0.180423,-0.01295 0.17324,0.258216 0,0.278294 -2.5216839,0.292603 -4.9576999,1.319167 -7.3387219,2.191707 l -0.203954,0.07439 c -2.405493,0.873088 -4.750775,1.888415 -7.007746,3.098607 -4.412747,2.366278 -8.46486,5.41733 -7.677782,3.229644 0.787077,-2.187686 4.686021,-4.537056 8.889613,-6.306269 2.12007,-0.892321 4.346408,-1.620846 6.610563,-2.036149 2.239014,-0.410654 4.46831,-0.353378 6.7280279,-0.530224 z M 55.39371,65.168975 c 0.88749,-0.0063 1.77499,-0.0045 2.66237,0.0053 l 0.66552,0.0089 c 1.11443,0.01754 2.06894,-0.09743 2.94507,0.676109 0.63591,0.561347 0.35577,1.503124 -0.24782,1.926036 -0.91458,0.640391 -2.06176,0.318293 -3.11303,0.247702 -1.10873,-0.07439 -2.21831,-0.136109 -3.32831,-0.185988 -2.14922,-0.09616 -4.29929,-0.157456 -6.45063,-0.166967 -2.14669,-0.0091 -4.29655,0.0112 -6.44303,0.04586 -2.18408,0.03551 -4.45817,0.239037 -6.63,0.01289 -0.29831,-0.03107 -0.36549,-0.423546 -0.071,-0.525629 2.04655,-0.708235 4.34873,-0.937761 6.49352,-1.208501 2.21218,-0.279616 4.42436,-0.47744 6.65049,-0.605729 2.28655,-0.131249 4.57648,-0.213887 6.86683,-0.22995 z m -26.84194,-6.956376 0.0732,0.0014 c 0.39062,9.86e-4 0.75621,0.09292 1.09711,0.275809 l 0.0727,0.04058 0.46901,0.362255 c 0.28711,0.28955 0.48591,0.630458 0.59577,1.023146 l 0.0828,0.616298 v 0 c 0.0123,0.319139 -0.0545,0.61672 -0.19944,0.893166 -0.0936,0.287437 -0.2533,0.535985 -0.47915,0.746067 -0.21,0.225933 -0.45866,0.385714 -0.74578,0.479342 -0.25508,0.133834 -0.52816,0.201036 -0.81974,0.201107 l -0.0733,-0.0014 c -0.4181,-0.0015 -0.8081,-0.106943 -0.72289,-2.338924 0.0852,-2.231981 0.35827,-2.299018 0.64968,-2.298897 z M 35.42193,3.7538771 c 0.49923,-0.7234521 1.40408,-0.080102 1.27458,0.5015342 0.0342,1.6335265 0.11767,3.218865 0.48929,4.8189981 0.17007,0.7325401 0.39296,1.4659256 0.73669,2.1369626 l 0.14437,0.282568 c 0.44495,0.879359 0.79034,1.708685 0.19113,2.673377 -0.28247,0.454826 -0.79289,0.796368 -1.3462,0.772486 -2.45387,-0.105887 -2.79106,-3.522787 -2.94021,-5.4302234 -0.15381,-1.9645009 0.32451,-4.1234442 1.45035,-5.7557025 z"
           id="🖍-Ink"
           fill="#000000"
           sodipodi:nodetypes="cccccscccccsccsccccccccccccccccccccccscccccccsccccccccccccccccccccccccccccccccccccscccccccccccccscccccccsccscccccccsccsscccccccccccccccccccccccccccccccccccssccccccsccsccccccccscccsscccccccscccccccccccccsscc" />
        <g
           id="a-person/standing"
           transform="matrix(-1,0,0,1,526.17959,-407.95618)"
           style="fill:none;fill-rule:evenodd;stroke:none;stroke-width:1">
          <g
             id="Head"
             stroke-width="1"
             transform="matrix(0.83558456,0,0,0.83558456,-74.74679,106.7727)">
            <g
               id="head/Long"
               transform="translate(19.807914,257.6419)">
              <path
                 d="M 102.57181,64.005269 C 101.67173,49.262771 96.878243,32.548587 82.770422,25.310301 51.669048,12.853528 10.777174,44.223227 8.6122205,76.269827 7.8574792,87.239599 13.960482,99.226381 25.113221,102.27623 c 2.479627,3.27856 6.229585,5.28082 9.930857,7.01857 44.084445,22.82573 72.561082,4.27093 67.527732,-45.289531 z"
                 id="path934"
                 fill="#ffffff" />
              <path
                 d="M 112.61488,54.834664 C 111.05695,50.516341 109.41115,46.2312 107.67985,41.97924 105.99368,37.841045 104.47064,33.613405 102.37672,29.671309 89.870524,6.1267329 67.128539,6.1267329 55.372814,9.2031231 49.276461,6.5817922 37.85781,7.3212028 31.50988,9.6866235 21.233238,13.515995 8.7059101,28.579878 4.4227888,35.347936 -5.0338015,50.291181 -10.935413,70.180352 -4.6538185,87.447954 c 0.8210009,2.25681 1.8680916,4.347001 3.046989,6.36135 -0.7426294,1.004448 -1.5973537,1.955806 -2.5442239,2.890574 -2.8137744,2.778231 -5.6275488,5.464982 -8.0582526,8.598492 -2.415505,3.11407 -4.418015,6.42557 -5.908736,10.07671 -2.810925,6.88562 -2.946294,14.6823 0.76994,21.25245 3.233181,5.71669 8.9607127,9.97362 15.4135371,10.37962 0.3312977,0.046 0.6630704,0.0882 0.99626804,0.12159 0.85496183,1.40547 1.89754029,2.69954 3.08736216,3.82771 3.6454623,3.46035 12.3351997,5.23555 17.2916027,5.34932 0.254114,0.20382 0.510603,0.40765 0.767091,0.60911 3.03274,2.38195 6.215098,4.78523 9.696692,6.47986 2.35827,1.14949 5.450382,2.10939 7.910772,1.27985 1.1162,0.74421 2.947244,0.58779 4.053944,-0.0213 1.819169,-1.00018 3.298728,-2.80146 4.198813,-4.6454 2.182527,-4.47712 1.657676,-9.37611 1.097201,-14.15898 -0.617473,-5.28295 -1.211196,-10.56827 -1.814419,-15.85123 -0.472604,-4.13108 -0.966582,-8.3309 -2.225276,-12.3103 -0.650721,-2.06198 -1.503308,-4.04339 -2.605259,-5.90629 0.0285,-0.15642 0.02375,-0.31285 -0.02137,-0.4598 -0.360984,-1.17083 -1.1067,-1.78468 -1.990161,-2.58104 -0.113995,-0.10191 -0.22799,-0.20619 -0.33961,-0.31285 -0.44173,-0.50246 -0.914334,-0.96937 -1.420186,-1.36518 -0.194742,-0.19671 -0.387108,-0.3958 -0.579475,-0.59489 -1.598303,-1.67092 -3.108736,-3.42717 -4.450551,-5.30903 -1.301442,-1.824974 -2.477014,-3.730534 -3.595589,-5.671647 -1.137575,-1.974293 -1.890416,-4.152415 -3.025615,-6.112488 -0.09737,-0.168277 -0.34436,-0.201459 -0.482104,-0.06162 -0.351484,0.362626 -0.577099,0.765543 -0.534351,1.189791 l -0.175742,0.02607 c -0.0665,-0.639927 -0.657846,-1.161349 -1.46056,-1.021513 -1.201696,0.208568 -2.189652,0.286782 -3.229856,-0.111395 0.182867,-1.211121 0.351485,-2.424613 0.517727,-3.640474 0.303987,-2.237375 0.586599,-4.48186 0.828838,-6.726345 0.586599,0.139836 1.168448,0.341295 1.738423,0.597265 0.812213,0.362626 1.579304,0.850866 2.234775,1.450502 0.645971,0.592525 1.092451,1.391249 1.880916,1.803646 0.907209,0.47165 2.002036,-0.308113 1.736047,-1.331996 -0.539101,-2.069098 -3.590839,-3.254148 -5.47888,-3.645214 -0.648346,-0.135096 -1.310941,-0.191979 -1.973537,-0.177758 0.149618,-1.441021 0.282613,-2.882042 0.391858,-4.325433 0.05225,-0.682589 0.09974,-1.365178 0.144868,-2.050137 1.467685,-0.443208 3.039864,-0.575934 4.566921,-0.367365 0.503478,0.400547 1.006955,0.796353 1.493809,1.1969 1.546056,1.275114 3.084987,2.557339 4.604919,3.863264 0.137744,0.116135 0.273113,0.23227 0.410857,0.350775 0.902459,0.775023 2.028159,0.0071 1.876166,-1.090246 -1.239695,-8.992161 4.279559,-16.145123 10.741645,-21.686418 7.153181,-6.136189 20.1581,-6.850705 28.664971,-17.479489 3.917886,0.795782 12.665309,3.159343 16.275148,8.899726 5.053775,8.04412 4.393554,15.251595 4.778287,24.376481 0.384733,9.131997 1.363189,18.65743 -0.714843,27.661441 -1.91654,8.302457 -7.105683,15.396167 -15.156574,18.657427 -0.199491,0.0806 -0.401357,0.1588 -0.603223,0.23464 -4.163189,1.56664 -8.706361,2.00985 -13.085666,1.18505 -4.847158,-0.91486 -8.893977,-3.12853 -12.926547,-5.85178 -0.23274,-0.15405 -0.57235,0.16354 -0.396608,0.39581 5.315013,7.02972 15.755047,9.37849 24.036302,7.5227 0.387108,-0.0877 0.771841,-0.1825 1.154199,-0.28678 -1.852418,5.31613 -1.479559,11.15132 0.933333,16.32762 1.45106,3.11431 3.664462,5.80911 6.359966,7.93509 2.970992,2.34166 6.656828,4.233 8.718236,7.52033 1.888041,3.0124 1.327566,6.3969 -1.904665,8.13655 -0.814589,0.44084 -1.128075,1.86527 -0.320611,2.49098 0.308737,0.23701 0.617473,0.47876 0.933334,0.71577 1.809669,1.36281 6.780322,3.92252 7.585411,4.01732 7.148431,0.84613 11.955211,-4.3918 15.035451,-10.57065 3.61696,-7.2525 2.6765,-16.09061 -1.30857,-22.99708 -3.19661,-5.54129 -9.49245,-11.00201 -6.98931,-18.01513 0.89296,-2.5052 2.71925,-4.64066 4.4933,-6.56992 2.02341,-2.19708 4.19881,-4.25433 6.1391,-6.52963 1.92841,-2.2587 3.63834,-4.716494 4.59304,-7.551134 1.39407,-4.142935 0.7006,-8.622425 -0.34673,-12.75825 -2.24428,-8.878396 -5.15827,-17.638286 -8.26226,-26.24886 z"
                 id="path936"
                 fill="#000000"
                 style="fill:#2d2d2d;stroke:#666666" />
            </g>
            <g
               id="face/Smile"
               transform="translate(57.568728,301.72577)"
               fill="#000000">
              <path
                 d="m 34.812755,57.102009 c -1.596469,-0.649965 -3.020923,-1.734148 -4.062336,-3.119123 -0.362061,-0.481474 -0.455938,-0.989903 -0.379985,-1.454926 0.0854,-0.522886 0.395376,-0.99679 0.81811,-1.314669 0.424043,-0.318864 0.954467,-0.47612 1.467276,-0.395956 0.445602,0.06966 0.889177,0.313143 1.240233,0.818122 l 0.07334,0.100983 c 0.619139,0.835923 1.425933,1.521788 2.345218,1.963868 0.886042,0.426093 1.87699,0.624967 2.90246,0.509317 1.953073,-0.220178 3.29923,-1.274288 4.730047,-2.705753 0.177354,-0.180726 0.354821,-0.367118 0.533149,-0.55651 0.112618,-0.171683 0.268903,-0.282023 0.442422,-0.339917 0.192661,-0.06428 0.410607,-0.06064 0.610228,0.0089 0.192536,0.06706 0.364653,0.194121 0.480063,0.363238 0.109687,0.160732 0.171876,0.359295 0.151697,0.587691 -0.130965,1.48348 -0.908114,2.807421 -2.012021,3.846995 -1.22603,1.15458 -2.851223,1.953326 -4.381271,2.233471 -1.685663,0.308591 -3.403309,0.0875 -4.958634,-0.54571 z m 5.753831,-22.885546 c 1.793372,1.087887 4.525921,3.624627 2.596665,6.321631 -2.270918,2.378037 -5.540529,-0.348545 -7.151736,-1.581672 -1.493987,-0.95568 -3.172565,1.502258 -1.786443,2.618176 11.642617,8.602335 16.367438,-7.073667 7.248577,-8.637223 -1.00402,-0.172297 -1.376915,0.942538 -0.907063,1.279088 z M 19.702904,24.209721 c 0.198144,-2.454541 3.943987,-3.011923 4.316607,-0.583045 0.333673,2.175752 -0.05913,4.174458 -1.041153,6.133346 -0.938321,1.871431 -3.296713,0.99832 -3.475068,-0.705782 -0.239077,-2.284278 0.07636,-3.317654 0.199614,-4.844519 z M 48.21676,23.123054 c 0.522239,-0.682589 1.276268,-1.148551 2.179678,-0.885233 2.822561,0.823136 1.990636,4.822206 0.999355,6.76877 -0.538626,1.057064 -2.279661,1.325123 -3.066463,0.394384 -1.282443,-1.517812 -1.89659,-4.548933 -0.266226,-6.043992 0.04417,-0.07727 0.09333,-0.155242 0.153656,-0.233929 z m -25.278158,-9.653656 0.445856,-0.07788 c 1.379291,-0.238063 3.09428,-0.466816 4.070005,0.639831 0.517489,0.586837 0.695607,1.677557 0,2.239271 -1.223545,0.988332 -2.576285,0.605324 -4.042544,0.688988 -1.208347,0.06921 -2.36967,0.268769 -3.533605,0.60082 -2.553486,0.728332 -4.634131,2.057958 -6.814996,3.51794 -0.286175,0.191504 -0.578287,-0.173728 -0.44173,-0.440838 1.258931,-2.460875 3.69866,-4.482334 6.142426,-5.714549 1.304291,-0.657703 2.731603,-1.2033 4.174588,-1.453583 z m 22.705168,-1.10236 0.341256,0.0697 c 3.713678,0.774693 8.538615,2.322206 10.29722,5.962551 0.06701,0.514758 -0.0038,0.62508 -0.06137,0.697159 l -0.01917,0.02398 c -0.04744,0.06155 -0.0853,0.146399 -0.308868,0.216458 -0.06204,-0.01475 -0.124698,-0.03038 -0.18802,-0.04694 -0.806114,-0.210826 -1.443906,-0.501269 -2.061356,-0.802639 l -0.669473,-0.329159 c -0.776723,-0.380074 -1.560303,-0.746315 -2.390718,-1.016688 -1.772177,-0.576869 -3.595013,-0.983237 -5.446091,-1.200229 -0.401207,-0.04699 -0.787544,-0.182125 -1.092336,-0.413722 -0.289309,-0.219833 -0.510322,-0.524196 -0.611092,-0.928761 -0.130598,-0.523572 -0.09307,-0.919958 0.18842,-1.392297 0.211661,-0.354716 0.514514,-0.60058 0.862265,-0.741764 0.354518,-0.143931 0.758133,-0.177862 1.159331,-0.09766 z"
                 id="path939" />
            </g>
            <g
               id="facial-hair/*-None"
               transform="translate(29.211196,80.109389)" />
            <g
               id="accessories/*-None"
               transform="translate(11.162002,57.119417)" />
          </g>
        </g>
      </g>
      <g
         id="head/No-Hair-3"
         transform="matrix(2.0189149,0,0,2.0189149,-445.47707,-240.97831)"
         inkscape:export-xdpi="300"
         inkscape:export-ydpi="300">
        <path
           d="M 84.264364,40.596962 C 76.831758,21.035013 63.433732,6.712443 40.84669,15.708357 c -0.647958,-0.441299 -1.493451,-0.559656 -2.303662,-0.0429 -12.304014,7.728869 -21.164366,20.120125 -25.004155,34.092704 -2.336831,0.44447 -4.607535,1.219703 -6.635704,2.490975 -4.4078873,2.762982 -7.37345069,7.159491 -10.1533099,11.441448 -0.8359859,1.287335 -0.061901,3.418591 1.5090846,3.710888 0.6823943,0.127233 1.35866193,0.202897 2.03112672,0.222764 -0.16373239,0.594528 -0.37922535,1.168978 -0.65366197,1.695874 -0.99359155,1.907226 0.88352113,3.932173 2.64274645,3.410772 0.1952113,0.10335 0.3997183,0.188313 0.6116198,0.25214 0.024084,1.080423 0.5790845,2.526693 1.6774647,2.745018 1.7763381,0.381276 4.1370423,-0.978763 3.7178874,-2.966301 0.5366197,0.09447 1.071338,0.106309 1.5925352,0.04079 0.05831,1.034983 0.040141,2.114983 0.182958,3.069652 0.466901,4.499225 4.960563,7.521534 9.245915,6.15283 0.262817,1.401886 0.571479,3.371671 1.95169,4.132109 1.613662,4.528603 4.400071,9.696752 8.963874,11.760165 -0.406268,1.041322 -0.185916,2.308155 1.037746,3.004975 8.353733,4.76447 18.380493,6.37665 27.825,4.60532 3.774507,-0.22487 7.452042,-1.0781 10.981901,-2.89592 2.574085,-1.32559 4.940493,-3.00899 7.250493,-4.744387 2.311268,-1.736031 4.782465,-3.426411 6.627254,-5.680462 2.003662,-2.44807 2.936408,-5.328352 3.54169,-8.393988 2.773732,-13.915092 1.815702,-27.578224 -3.222819,-40.833692 -6.236902,-16.408199 6.234656,14.026888 0,-2.382165 z"
           id="path840"
           fill="#ffffff" />
        <path
           d="m 48.331479,11.896401 c 3.803873,-0.268626 7.677042,0.372822 11.299436,1.520242 5.777324,1.829449 11.083099,5.058036 15.442184,9.261159 4.492605,4.331624 7.815211,9.672235 9.835563,15.57081 2.436338,7.113628 2.800986,14.709135 3.48676,22.134928 0.346416,3.751827 0.917249,7.446431 1.510714,11.161911 L 90,72.132291 c 0.579718,3.620008 0.905916,7.281229 0.105,10.895531 -1.331409,6.006998 -5.322676,11.106035 -10.060352,14.873776 -9.732465,7.740072 -24.88331,12.458892 -36.215071,5.336592 -1.753098,-1.10198 -0.0919,-3.91991 1.619578,-2.77164 1.204436,0.80841 2.480493,1.51707 3.848873,2.00634 5.717324,2.04397 11.996409,1.31587 17.646972,-0.58544 5.56838,-1.87362 10.911549,-5.039433 15.020282,-9.263902 4.315774,-4.4373 6.707535,-9.918247 6.361901,-16.154771 -0.205986,-3.710678 -1.051056,-7.352666 -1.52007,-11.03312 -0.415465,-3.259726 -0.66456,-6.537126 -0.951689,-9.810035 L 85.750182,54.448383 C 85.14142,47.780137 84.267087,40.928981 81.234296,34.876095 78.683239,29.783821 74.947817,25.253528 70.456268,21.754835 65.753873,18.091923 60.137324,15.530146 54.244225,14.574632 c -6.93,-1.123538 -13.563803,0.919585 -19.344718,4.723045 -5.127042,3.37315 -9.53493,7.880829 -12.914789,12.995507 -1.639014,2.479984 -3.035281,5.128414 -4.240986,7.844477 -1.136197,2.559029 -1.919577,5.241065 -2.83331,7.878716 0.751902,-0.0224 1.516268,0.0066 2.292465,0.09236 3.981127,0.4413 7.690352,2.505347 10.05169,5.75993 2.885705,3.976978 2.105705,8.858748 3.232817,13.381644 0.08725,0.351053 -0.06106,0.694708 -0.36169,0.888939 -1.708943,1.104939 -3.996127,1.141714 -5.650141,-0.102505 -1.435563,-1.079788 -2.109507,-3.032031 -1.52831,-4.737839 0.07585,-0.222341 0.399508,-0.18303 0.408592,0.05537 0.109225,2.902897 2.801408,5.138349 5.440352,3.756963 C 27.664225,63.211195 28.26,58.855477 25.944718,55.33269 21.846761,49.097857 13.366479,48.840221 7.4102113,52.354976 c -3.1346866,1.84946 -5.6158686,4.63041 -7.46343303,7.740983 l -0.53227479,0.902997 c -0.70820248,1.206525 -1.45820598,2.571429 -1.60513728,3.900083 -0.084718,0.766779 0.198169,1.487272 1.0774648,1.100923 0.71133801,-0.312375 1.26211266,-1.041322 1.68464787,-1.667976 0.72061793,-1.068805 2.37656663,-0.145428 1.78133843,0.992722 l -0.020212,0.03719 c -0.8662817,1.535321 -1.3996194,3.227207 -1.49756101,4.990021 l -0.0248894,0.488152 c -0.0163312,0.355778 -0.0280689,0.861424 0.0471688,0.879878 0.0902113,0.02219 0.71704231,-0.701683 0.82140851,-0.801863 0.5028169,-0.483147 1.0206338,-0.877949 1.7205634,-1.006662 0.9201014,-0.168702 1.8484296,0.970148 1.0497382,1.716762 l -0.03333,0.03005 c -0.7128169,0.619891 -0.6811267,1.856079 0.1062675,2.435813 1.1112806,0.81818 2.4794192,-0.517266 2.6407078,-1.616798 l 0.00542,-0.04061 c 0.1426055,-1.188 1.7919718,-1.230059 1.8815493,0 0.194577,2.669349 -2.982254,4.906703 -5.3993667,3.559979 -0.9557747,-0.53218 -1.5633803,-1.506716 -1.7537324,-2.551209 -0.3050704,0.16126 -0.6342254,0.273064 -0.9821831,0.303921 -1.1328169,0.100392 -1.938169,-0.696399 -2.121338,-1.765831 -0.2133803,-1.24591 -0.086831,-2.579953 0.24126758,-3.87384 -0.61521128,0.148368 -1.26232398,0.09173 -1.91281688,-0.283843 -1.9679578,-1.136008 -1.4028169,-3.662912 -0.6597888,-5.368932 3.17218314,-7.281863 9.7442958,-13.889307 17.8865489,-14.413879 0.04458,-1.284798 0.218662,-2.499428 0.503451,-3.785917 2.78493,-12.583586 11.806901,-24.23575 23.552324,-29.681824 3.138592,-1.455358 6.467113,-2.434333 9.927465,-2.678865 z m -30.801465,50.266666 0.111623,-0.02517 c 1.268939,-0.273505 4.608324,-0.594809 4.205842,1.541393 -0.01901,0.100391 -0.165,0.08813 -0.190986,0 -0.394225,-1.343131 -3.072254,-0.269049 -3.854155,0.05432 -1.077887,0.445526 -2.141197,1.102826 -3.021338,1.866857 -1.926972,1.673049 -3.218662,4.030873 -3.415141,6.591593 -0.194789,2.540219 0.541902,5.283969 2.373592,7.121448 0.897887,0.900564 2.044014,1.512 3.331479,1.557018 1.15669,0.04016 2.434647,-0.860619 3.501971,-0.333088 0.210423,0.103984 0.377113,0.389518 0.358099,0.62454 -0.03592,0.444892 -0.23493,0.791295 -0.531127,1.059922 1.786902,3.257542 3.249296,6.70551 5.528662,9.667796 1.143803,1.486215 2.43993,2.862528 3.907606,4.033832 0.697605,0.556908 1.456056,1.045972 2.238169,1.475647 0.916479,0.504071 1.709577,0.819406 2.363662,1.673261 0.557746,0.728102 -2.11e-4,2.135904 -0.919648,2.261444 -2.165282,0.29505 -4.269507,-1.4562 -5.859085,-2.768051 -1.588098,-1.310794 -2.960704,-2.927624 -4.095,-4.643155 C 21.38607,90.628359 19.896,86.742049 19.300225,82.8103 c -0.69169,0.219381 -1.470422,0.286379 -2.056267,0.287648 -1.558733,0.0036 -3.047113,-0.557331 -4.272042,-1.505237 -4.4843667,-3.469738 -4.982747,-10.593722 -1.818169,-15.086184 1.514366,-2.149644 3.815492,-3.737942 6.376267,-4.34346 z m 0.0281,8.262528 c 1.039859,-0.0913 2.078873,0.07292 3.056197,0.427562 l 0.40289,0.146112 c 0.851082,0.311302 1.757008,0.677345 2.371687,1.315587 0.939085,0.975592 0.004,2.665972 -1.333732,2.292093 -1.479085,-0.413401 -2.681197,-1.659522 -4.159859,-2.182191 -1.32169,-0.467084 -2.818733,-0.400932 -3.99169,0.403467 -0.15486,0.10631 -0.358521,-0.10335 -0.257324,-0.257636 0.897253,-1.366802 2.313803,-2.004869 3.911831,-2.144994 z"
           id="path842"
           fill="#000000" />
      </g>
      <g
         id="face/Smiling"
         transform="matrix(2.0189149,0,0,2.0189149,-377.65859,-161.61244)"
         fill="#000000"
         inkscape:export-xdpi="300"
         inkscape:export-ydpi="300">
        <path
           d="m 30.968993,50.919898 c -1.420199,-0.579597 -2.687376,-1.546402 -3.613804,-2.781433 -0.322085,-0.429348 -0.405596,-0.882732 -0.33803,-1.29741 0.07597,-0.466276 0.351722,-0.888873 0.72778,-1.172337 0.377224,-0.284343 0.849082,-0.424574 1.305271,-0.353088 0.396402,0.06212 0.791,0.279241 1.103296,0.729548 l 0.06525,0.09005 c 0.550778,0.745422 1.268492,1.357032 2.086277,1.75125 0.788212,0.379963 1.669747,0.557306 2.581992,0.454177 1.737429,-0.19634 2.934953,-1.136329 4.20779,-2.412817 0.157772,-0.16116 0.315645,-0.327372 0.474284,-0.496259 0.100183,-0.153096 0.239212,-0.251491 0.393572,-0.303117 0.171389,-0.05732 0.365271,-0.05408 0.542852,0.0079 0.171277,0.0598 0.32439,0.173105 0.427057,0.323913 0.09758,0.14333 0.152899,0.320396 0.134948,0.524065 -0.116505,1.322871 -0.807846,2.503477 -1.789869,3.430502 -1.090661,1.02958 -2.536412,1.741851 -3.897523,1.991666 -1.499545,0.275182 -3.027542,0.07803 -4.411139,-0.486629 z M 36.087529,30.51204 c 1.595362,0.970108 4.026203,3.232209 2.309961,5.637224 -2.020181,2.120581 -4.928786,-0.31081 -6.362095,-1.410433 -1.329032,-0.852215 -2.822274,1.339617 -1.589198,2.334721 10.357127,7.671008 14.560269,-6.307842 6.448244,-7.70212 -0.893164,-0.153644 -1.224887,0.840495 -0.806912,1.140608 z M 17.527458,21.588672 c 0.176266,-2.188802 3.508521,-2.68584 3.84,-0.519922 0.296831,1.940196 -0.05261,3.722513 -0.926197,5.469323 -0.834719,1.668822 -2.932715,0.890238 -3.091377,-0.629371 -0.21268,-2.036972 0.06793,-2.95847 0.177574,-4.32003 z m 25.36557,-0.96902 c 0.464578,-0.608689 1.135352,-1.024204 1.939014,-0.789394 2.510916,0.73402 1.770845,4.300133 0.889014,6.035953 -0.479155,0.942623 -2.027957,1.18166 -2.727887,0.351687 -1.140845,-1.353487 -1.687183,-4.056446 -0.236831,-5.389644 0.0393,-0.0689 0.08303,-0.138434 0.13669,-0.208602 z m -22.487134,-8.608509 0.396628,-0.06945 c 1.227,-0.21229 2.752633,-0.416276 3.620626,0.57056 0.460352,0.523304 0.618803,1.495938 0,1.996838 -1.088451,0.881331 -2.291831,0.539789 -3.596197,0.614395 -1.07493,0.06171 -2.108028,0.239672 -3.143451,0.535773 -2.271549,0.64948 -4.122465,1.835155 -6.062535,3.137073 -0.254578,0.170771 -0.514437,-0.15492 -0.392958,-0.393112 1.11993,-2.19445 3.290282,-3.997057 5.464225,-5.095867 1.160282,-0.586497 2.43,-1.073025 3.713662,-1.29621 z m 20.198235,-0.983014 0.303576,0.06215 c 3.303642,0.690821 7.595846,2.070794 9.160279,5.317019 0.05961,0.459028 -0.0034,0.557407 -0.05459,0.621682 l -0.01705,0.02139 c -0.0422,0.05489 -0.07588,0.130549 -0.274764,0.193024 -0.05519,-0.01316 -0.110931,-0.02709 -0.167261,-0.04186 -0.717109,-0.188001 -1.284481,-0.447 -1.833757,-0.715742 L 47.125001,16.192275 C 46.434039,15.85335 45.736976,15.52676 44.998249,15.285659 43.421742,14.771244 41.80017,14.408871 40.153474,14.215372 c -0.356909,-0.0419 -0.700589,-0.162408 -0.971729,-0.368932 -0.257365,-0.196032 -0.453976,-0.467444 -0.543619,-0.828209 -0.116178,-0.466887 -0.08279,-0.820359 0.167616,-1.24156 0.188291,-0.316313 0.457705,-0.535559 0.767061,-0.661458 0.315374,-0.128348 0.674425,-0.158606 1.031326,-0.08708 z"
           id="path845" />
      </g>
      <g
         id="facial-hair/Moustache-9"
         transform="matrix(2.0189149,0,0,2.0189149,-393.01375,-96.754444)"
         inkscape:export-xdpi="300"
         inkscape:export-ydpi="300">
        <path
           d="M 51.837735,6.937084 C 48.87443,6.4371446 45.795769,7.1760191 42.938618,7.9633112 38.399921,4.9821405 32.518897,7.9912357 29.268379,11.715785 c -1.11247,0.916556 -3.448699,2.133976 -2.217877,3.882638 -0.466561,1.236112 -0.591334,1.817798 0.374319,0.372703 5.465185,0.629428 11.328873,-0.559617 16.737556,-1.681103 1.841633,0.619519 3.467961,2.067993 5.492366,1.571882 1.914184,0.407157 3.986314,0.787292 5.714302,-0.441163 1.315788,-0.05337 4.243138,2.310306 4.196053,-0.438461 C 59.158035,12.347465 53.93592,7.9633112 51.837735,6.937084 Z"
           id="path848"
           fill="#ffffff" />
        <path
           d="m 54.059873,15.395876 c -3.217183,0.356125 -6.479789,-0.167178 -9.173662,-2.035938 -0.281197,-0.195076 -0.55838,-0.192963 -0.784436,-0.07862 -0.27486,-0.03044 -0.556057,0.07926 -0.719155,0.393323 -0.676479,1.303397 -2.918662,1.013002 -4.151198,1.039632 -4.031619,0.07778 -8.203943,-0.144775 -12.083873,1.074505 C 30.858253,8.5322748 35.990155,5.3996407 43.93107,8.2484313 43.214028,8.8260517 46.792056,7.4738325 47.106,7.4480477 c 5.494225,-1.3771585 10.026972,3.2328143 12.241268,7.8009393 -1.675141,-0.398818 -3.552254,-0.04523 -5.287395,0.146889 m 7.674085,1.234919 C 59.311352,11.171829 54.534591,5.1694802 47.871845,6.1129479 46.503887,6.3143648 45.064944,7.2491671 43.68769,7.0805096 39.700014,5.6071867 36.408465,4.8585839 32.414873,7.2409245 30.720507,7.3675233 21.185577,19.177144 25.716634,18.212964 c 5.561831,-3.195194 15.232394,-0.185566 18.686197,-3.043445 6.780634,4.45294 12.293873,-0.384234 16.115282,2.399249 0.664436,0.609745 1.596338,-0.149636 1.215845,-0.937973"
           id="path850"
           fill="#000000" />
      </g>
      <g
         id="accessories/Glasses-3"
         transform="matrix(2.0189149,0,0,2.0189149,-425.4301,-138.14403)"
         fill="#000000"
         inkscape:export-xdpi="300"
         inkscape:export-ydpi="300">
        <path
           d="m 77.563437,20.779602 c -1.422465,1.911663 -4.059507,2.520563 -6.491831,2.31027 -5.245986,-0.505128 -6.897043,-6.465417 -7.069015,-11.098004 3.517818,0.989964 -0.297464,-6.0213702 11.727677,-6.792376 4.239084,-0.3533777 3.070352,2.2077651 4.943239,4.0790606 -0.03845,3.9273114 -0.691901,8.1946854 -3.11007,11.5010494 M 52.576606,16.26685 c -3.097184,14.509832 -20.057324,11.058481 -21.838944,-2.021143 1.645141,-1.161581 1.211831,-4.029816 3.255634,-5.0690252 3.239155,-2.0703875 7.28831,-1.9818317 10.96669,-1.9332211 4.70176,0.3231546 6.04162,2.2715929 8.456831,4.3973543 -0.116197,1.419851 -0.451268,3.102622 -0.840211,4.626035 M 84.281958,2.7964391 C 84.108085,2.7674842 83.934,2.74022 83.759916,2.7146466 83.62407,2.6375037 83.464563,2.5781143 83.27907,2.5423961 82.855479,2.4348188 82.434845,2.3623256 82.014845,2.3232258 75.986958,0.9661456 62.041817,2.8930262 61.466324,8.0389832 59.546746,8.6800086 57.885761,8.1059812 55.660901,8.1630458 53.96738,1.0817542 24.689282,2.0812298 23.281183,6.3505057 c -0.0053,-0.00148 -0.01056,-0.00275 -0.01606,-0.00444 C 21.912169,5.927171 19.917591,6.0281965 18.369,5.9618325 15.062451,5.8925096 11.752099,6.1873432 8.5169578,6.8850106 2.4588592,7.8481339 -5.8090986,8.9756877 -1.5957887,16.543719 c 8.45e-4,0.0013 0.00148,0.0027 0.00254,0.004 l 6.338e-4,-6.34e-4 c 0.72612674,0.744587 1.95845069,0.144986 2.00429576,-0.862944 C -1.0048732,12.098811 2.1945634,11.66829 4.6562535,10.637958 10.781535,8.4365331 17.017732,8.1313433 23.352803,8.8123139 c 0.476619,0.5613464 1.199788,1.0508337 1.964155,1.3069901 4.235704,0.703374 2.00345,3.846576 4.680845,4.303726 -0.491831,10.956822 12.805563,16.937613 20.510282,9.735006 3.076267,-3.008783 3.809577,-7.465949 4.522816,-11.483507 0.377113,-0.08475 0.616902,-0.291029 0.756972,-0.564094 0.906972,-0.905847 1.476761,-1.742372 3.270211,-1.991131 1.793451,-0.2485478 3.174085,0.25045 3.360846,0.403257 0.04711,0.0949 0.0976,0.190003 0.156338,0.285111 0.08197,0.141816 0.193521,0.254889 0.320281,0.343867 -1.771056,10.910747 6.695916,17.810912 15.243592,12.152008 3.714084,-3.4951 4.498944,-8.846067 4.654014,-13.6221607 0.503451,-0.3039217 0.822253,-0.892955 0.647958,-1.6335264 C 83.200901,7.027038 83.764141,6.143171 84.661183,5.6993354 85.826746,5.1229832 85.620549,3.0181456 84.281958,2.7964391"
           id="path853" />
      </g>
      <text
         xml:space="preserve"
         id="text999"
         style="font-style:normal;font-variant:normal;font-weight:normal;font-stretch:normal;font-size:13.3333px;line-height:1.25;font-family:'Noto Sans Malayalam UI';-inkscape-font-specification:'Noto Sans Malayalam UI, Normal';font-variant-ligatures:normal;font-variant-caps:normal;font-variant-numeric:normal;font-variant-east-asian:normal;letter-spacing:0px;word-spacing:0px;white-space:pre;shape-inside:url(#rect1001);fill:#005c94;fill-opacity:1;stroke:none;"
         transform="matrix(2.5642794,0,0,2.5642794,-667.75025,-407.81865)"
         inkscape:export-xdpi="300"
         inkscape:export-ydpi="300"><tspan
           x="238.18555"
           y="113.44414"><tspan
             dx="0 0 0 0 0 0 0 -3.0933049"
             style="font-style:normal;font-variant:normal;font-weight:normal;font-stretch:normal;font-size:13.3333px;font-family:'Noto Sans Malayalam UI';-inkscape-font-specification:'Noto Sans Malayalam UI, Normal';font-variant-ligatures:normal;font-variant-caps:normal;font-variant-numeric:normal;font-variant-east-asian:normal;fill:#005c94">ശുഭരാത്രി</tspan></tspan></text>
      <rect
         style="fill:#ffffff;fill-rule:evenodd;stroke:#9eabb0;stroke-width:4.82677;stroke-linecap:round;stroke-linejoin:bevel;paint-order:stroke fill markers"
         id="rect1007-0"
         width="167.20572"
         height="119.87402"
         x="393.24686"
         y="-191.07004"
         ry="10.864671"
         inkscape:export-xdpi="300"
         inkscape:export-ydpi="300" />
      <text
         xml:space="preserve"
         id="text999-6"
         style="font-style:normal;font-variant:normal;font-weight:normal;font-stretch:normal;font-size:13.3333px;line-height:1.25;font-family:Manjari;-inkscape-font-specification:'Manjari, Normal';font-variant-ligatures:normal;font-variant-caps:normal;font-variant-numeric:normal;font-variant-east-asian:normal;letter-spacing:0px;word-spacing:0px;white-space:pre;shape-inside:url(#rect1001-4);fill:#19aeff;fill-opacity:1;fill-rule:evenodd;stroke:none;stroke-width:1;"
         transform="matrix(1.6440629,0,0,1.6440629,40.609735,-309.15483)"
         inkscape:export-xdpi="300"
         inkscape:export-ydpi="300"><tspan
           x="238.18555"
           y="111.86803"><tspan
             style="font-style:normal;font-variant:normal;font-weight:normal;font-stretch:normal;font-size:13.3333px;font-family:Manjari;-inkscape-font-specification:'Manjari, Normal';font-variant-ligatures:normal;font-variant-caps:normal;font-variant-numeric:normal;font-variant-east-asian:normal;fill:#19aeff">ശുഭരാത്രി</tspan></tspan></text>
      <text
         xml:space="preserve"
         id="text999-8"
         style="font-style:normal;font-variant:normal;font-weight:normal;font-stretch:normal;font-size:13.33329943px;line-height:1.25;font-family:Manjari;-inkscape-font-specification:'Manjari, Normal';font-variant-ligatures:normal;font-variant-caps:normal;font-variant-numeric:normal;font-variant-east-asian:normal;letter-spacing:0px;word-spacing:0px;white-space:pre;shape-inside:url(#rect1001-3);fill:#005c94;fill-opacity:1;fill-rule:evenodd;stroke:none;stroke-width:1;"
         transform="matrix(2.0189149,0,0,2.0189149,-542.06574,-212.74447)"
         inkscape:export-xdpi="300"
         inkscape:export-ydpi="300"><tspan
           x="238.18555"
           y="111.86803"><tspan
             style="font-style:normal;font-variant:normal;font-weight:normal;font-stretch:normal;font-size:13.3333px;font-family:Manjari;-inkscape-font-specification:'Manjari, Normal';font-variant-ligatures:normal;font-variant-caps:normal;font-variant-numeric:normal;font-variant-east-asian:normal">ശ ു ഭ ര ാ ത ് ര ി</tspan></tspan></text>
      <text
         xml:space="preserve"
         id="text999-8-7"
         style="font-style:normal;font-variant:normal;font-weight:normal;font-stretch:normal;font-size:7.92505px;line-height:1.25;font-family:'Noto Sans Malayalam UI';-inkscape-font-specification:'Noto Sans Malayalam UI, Normal';font-variant-ligatures:normal;font-variant-caps:normal;font-variant-numeric:normal;font-variant-east-asian:normal;letter-spacing:0px;word-spacing:0px;white-space:pre;shape-inside:url(#rect1001-3-1);fill:#ff6600;fill-opacity:1;fill-rule:evenodd;stroke:none;stroke-width:1;"
         transform="matrix(2.0189149,0,0,2.0189149,-441.59358,-251.40287)"
         inkscape:export-xdpi="300"
         inkscape:export-ydpi="300"><tspan
           x="238.18555"
           y="108.52331"><tspan
             dx="0 0 4.7153988 0 -4.7153993"
             style="font-style:normal;font-variant:normal;font-weight:normal;font-stretch:normal;font-size:7.92505px;font-family:'Noto Sans Malayalam UI';-inkscape-font-specification:'Noto Sans Malayalam UI, Normal';font-variant-ligatures:normal;font-variant-caps:normal;font-variant-numeric:normal;font-variant-east-asian:normal;fill:#ff6600">നോട്ടോ</tspan></tspan></text>
      <path
         style="fill:none;fill-rule:evenodd;stroke:#005c94;stroke-width:2.02209;stroke-linecap:butt;stroke-linejoin:miter;stroke-miterlimit:4;stroke-dasharray:none;stroke-opacity:1;marker-end:url(#Arrow1Mend)"
         d="M 23.591163,-7.5559145 24.738562,-58.543005"
         id="path1191"
         inkscape:connector-type="polyline"
         inkscape:connector-curvature="0"
         inkscape:export-xdpi="300"
         inkscape:export-ydpi="300" />
      <g
         id="layer1-0"
         inkscape:label="Layer 1"
         transform="matrix(2.0189149,0,0,2.0189149,-238.28369,-35.745931)"
         inkscape:export-xdpi="300"
         inkscape:export-ydpi="300">
        <rect
           ry="2.2340579"
           rx="2.0384057"
           y="10"
           x="4"
           height="26"
           width="40"
           id="rect4564"
           style="fill:#000000;fill-opacity:1;fill-rule:evenodd;stroke:#ffffff;stroke-width:8;stroke-linecap:butt;stroke-linejoin:miter;stroke-miterlimit:4;stroke-dasharray:none;stroke-opacity:1" />
        <rect
           style="fill:#2d2d2d;fill-opacity:1;fill-rule:evenodd;stroke:none;stroke-width:1px;stroke-linecap:butt;stroke-linejoin:miter;stroke-opacity:1"
           id="rect1880"
           width="40"
           height="26"
           x="4"
           y="10"
           rx="2.0384057"
           ry="2.2340579" />
        <path
           style="fill:none;fill-opacity:0.75;fill-rule:evenodd;stroke:#ffffff;stroke-width:4;stroke-linecap:butt;stroke-linejoin:miter;stroke-miterlimit:4;stroke-dasharray:none;stroke-opacity:1"
           d="M 14,30 H 33"
           id="path2768"
           sodipodi:nodetypes="cc" />
        <path
           sodipodi:nodetypes="cc"
           id="path3655"
           d="m 7,30 h 5"
           style="fill:none;fill-opacity:0.75;fill-rule:evenodd;stroke:#ffffff;stroke-width:4;stroke-linecap:butt;stroke-linejoin:miter;stroke-miterlimit:4;stroke-dasharray:none;stroke-opacity:1" />
        <path
           style="fill:none;fill-opacity:0.75;fill-rule:evenodd;stroke:#ffffff;stroke-width:4;stroke-linecap:butt;stroke-linejoin:miter;stroke-miterlimit:4;stroke-dasharray:none;stroke-opacity:1"
           d="m 35,30 h 6"
           id="path3657"
           sodipodi:nodetypes="cc" />
        <path
           style="fill:none;fill-opacity:0.75;fill-rule:evenodd;stroke:#ffffff;stroke-width:4;stroke-linecap:butt;stroke-linejoin:miter;stroke-miterlimit:4;stroke-dasharray:none;stroke-opacity:1"
           d="m 7,16 h 4"
           id="path3659"
           sodipodi:nodetypes="cc" />
        <path
           sodipodi:nodetypes="cc"
           id="path3661"
           d="m 13,16 h 4"
           style="fill:none;fill-opacity:0.75;fill-rule:evenodd;stroke:#ffffff;stroke-width:4;stroke-linecap:butt;stroke-linejoin:miter;stroke-miterlimit:4;stroke-dasharray:none;stroke-opacity:1" />
        <path
           style="fill:none;fill-opacity:0.75;fill-rule:evenodd;stroke:#ffffff;stroke-width:4;stroke-linecap:butt;stroke-linejoin:miter;stroke-miterlimit:4;stroke-dasharray:none;stroke-opacity:1"
           d="m 19,16 h 4"
           id="path3663"
           sodipodi:nodetypes="cc" />
        <path
           sodipodi:nodetypes="cc"
           id="path3665"
           d="m 25,16 h 4"
           style="fill:none;fill-opacity:0.75;fill-rule:evenodd;stroke:#ffffff;stroke-width:4;stroke-linecap:butt;stroke-linejoin:miter;stroke-miterlimit:4;stroke-dasharray:none;stroke-opacity:1" />
        <path
           style="fill:none;fill-opacity:0.75;fill-rule:evenodd;stroke:#ffffff;stroke-width:4;stroke-linecap:butt;stroke-linejoin:miter;stroke-miterlimit:4;stroke-dasharray:none;stroke-opacity:1"
           d="m 31,16 h 4"
           id="path3667"
           sodipodi:nodetypes="cc" />
        <path
           sodipodi:nodetypes="cc"
           id="path3669"
           d="m 34,23 h 4"
           style="fill:none;fill-opacity:0.75;fill-rule:evenodd;stroke:#ffffff;stroke-width:4;stroke-linecap:butt;stroke-linejoin:miter;stroke-miterlimit:4;stroke-dasharray:none;stroke-opacity:1" />
        <path
           style="fill:none;fill-opacity:0.75;fill-rule:evenodd;stroke:#ffffff;stroke-width:4;stroke-linecap:butt;stroke-linejoin:miter;stroke-miterlimit:4;stroke-dasharray:none;stroke-opacity:1"
           d="m 28,23 h 4"
           id="path3671"
           sodipodi:nodetypes="cc" />
        <path
           sodipodi:nodetypes="cc"
           id="path3673"
           d="m 22,23 h 4"
           style="fill:none;fill-opacity:0.75;fill-rule:evenodd;stroke:#ffffff;stroke-width:4;stroke-linecap:butt;stroke-linejoin:miter;stroke-miterlimit:4;stroke-dasharray:none;stroke-opacity:1" />
        <path
           style="fill:none;fill-opacity:0.75;fill-rule:evenodd;stroke:#ffffff;stroke-width:4;stroke-linecap:butt;stroke-linejoin:miter;stroke-miterlimit:4;stroke-dasharray:none;stroke-opacity:1"
           d="m 16,23 h 4"
           id="path3675"
           sodipodi:nodetypes="cc" />
        <path
           sodipodi:nodetypes="cc"
           id="path5451"
           d="m 37,16 h 4"
           style="fill:none;fill-opacity:0.75;fill-rule:evenodd;stroke:#ffffff;stroke-width:4;stroke-linecap:butt;stroke-linejoin:miter;stroke-miterlimit:4;stroke-dasharray:none;stroke-opacity:1" />
        <path
           sodipodi:nodetypes="cc"
           id="path5453"
           d="m 10,23 h 4"
           style="fill:none;fill-opacity:0.75;fill-rule:evenodd;stroke:#ffffff;stroke-width:4;stroke-linecap:butt;stroke-linejoin:miter;stroke-miterlimit:4;stroke-dasharray:none;stroke-opacity:1" />
      </g>
      <path
         style="display:inline;fill:none;fill-rule:evenodd;stroke:#005c94;stroke-width:2.02209;stroke-linecap:butt;stroke-linejoin:miter;stroke-miterlimit:4;stroke-dasharray:none;stroke-opacity:1;marker-end:url(#Arrow1Mend-7)"
         d="m -134.90191,7.0737396 58.168572,0.2074903"
         id="path1191-0"
         inkscape:connector-type="polyline"
         inkscape:connector-curvature="0"
         inkscape:export-xdpi="300"
         inkscape:export-ydpi="300" />
      <text
         xml:space="preserve"
         id="text999-8-7-5"
         style="font-style:normal;font-variant:normal;font-weight:normal;font-stretch:normal;font-size:10.6667px;line-height:1.25;font-family:'Fira Code';-inkscape-font-specification:'Fira Code, Normal';font-variant-ligatures:normal;font-variant-caps:normal;font-variant-numeric:normal;font-variant-east-asian:normal;letter-spacing:0px;word-spacing:0px;white-space:pre;shape-inside:url(#rect1001-3-1-0);fill:#2d2d2d;fill-opacity:1;fill-rule:evenodd;stroke:none;stroke-width:1;"
         transform="matrix(2.0189149,0,0,2.0189149,-563.82253,-85.494767)"
         inkscape:export-xdpi="300"
         inkscape:export-ydpi="300"><tspan
           x="238.18555"
           y="110.64586"><tspan
             style="font-style:normal;font-variant:normal;font-weight:normal;font-stretch:normal;font-size:10.6667px;font-family:'Fira Code';-inkscape-font-specification:'Fira Code, Normal';font-variant-ligatures:normal;font-variant-caps:normal;font-variant-numeric:normal;font-variant-east-asian:normal;fill:#2d2d2d">0D36 0D41 0D2D 0D30 </tspan></tspan><tspan
           x="238.18555"
           y="123.97924"><tspan
             style="font-style:normal;font-variant:normal;font-weight:normal;font-stretch:normal;font-size:10.6667px;font-family:'Fira Code';-inkscape-font-specification:'Fira Code, Normal';font-variant-ligatures:normal;font-variant-caps:normal;font-variant-numeric:normal;font-variant-east-asian:normal;fill:#2d2d2d">0D3E 0D24 0D4D 0D30 </tspan></tspan><tspan
           style="visibility:hidden"
           x="238.18555"
           y="146.23571"><tspan
             dx="0 6.5641074 6.5641074 6.5641069"
             style="font-style:normal;font-variant:normal;font-weight:normal;font-stretch:normal;font-size:10.6667px;font-family:'Fira Code';-inkscape-font-specification:'Fira Code, Normal';font-variant-ligatures:normal;font-variant-caps:normal;font-variant-numeric:normal;font-variant-east-asian:normal;fill:#2d2d2d">0D3F</tspan></tspan></text>
      <path
         style="display:inline;fill:none;fill-rule:evenodd;stroke:#005c94;stroke-width:2.02209;stroke-linecap:butt;stroke-linejoin:miter;stroke-miterlimit:4;stroke-dasharray:2.02209, 2.02209;stroke-dashoffset:0;stroke-opacity:1;marker-end:url(#Arrow1Mend-7-7)"
         d="M 197.08381,144.80379 348.0595,144.9108"
         id="path1191-0-8"
         inkscape:connector-type="polyline"
         inkscape:connector-curvature="0"
         inkscape:export-xdpi="300"
         inkscape:export-ydpi="300" />
      <text
         xml:space="preserve"
         id="text999-8-3"
         style="font-style:normal;font-variant:normal;font-weight:normal;font-stretch:normal;font-size:13.33329943px;line-height:1.25;font-family:Manjari;-inkscape-font-specification:'Manjari, Normal';font-variant-ligatures:normal;font-variant-caps:normal;font-variant-numeric:normal;font-variant-east-asian:normal;letter-spacing:0px;word-spacing:0px;white-space:pre;shape-inside:url(#rect1001-3-0);fill:#005c94;fill-opacity:1;fill-rule:evenodd;stroke:none;stroke-width:1;"
         transform="matrix(2.0189149,0,0,2.0189149,-172.11657,-208.431)"
         inkscape:export-xdpi="300"
         inkscape:export-ydpi="300"><tspan
           x="238.18555"
           y="111.86803"><tspan
             style="font-style:normal;font-variant:normal;font-weight:normal;font-stretch:normal;font-size:13.3333px;font-family:Manjari;-inkscape-font-specification:'Manjari, Normal';font-variant-ligatures:normal;font-variant-caps:normal;font-variant-numeric:normal;font-variant-east-asian:normal">ശ ു ഭ ര ാ ത ് ര ി</tspan></tspan></text>
      <path
         style="display:inline;fill:none;fill-rule:evenodd;stroke:#005c94;stroke-width:2.02209;stroke-linecap:butt;stroke-linejoin:miter;stroke-miterlimit:4;stroke-dasharray:none;stroke-opacity:1;marker-end:url(#Arrow1Mend-5)"
         d="M 22.098914,33.546047 V 84.01892"
         id="path1191-5"
         inkscape:connector-type="polyline"
         inkscape:connector-curvature="0"
         inkscape:export-xdpi="300"
         inkscape:export-ydpi="300" />
      <path
         style="fill:none;fill-rule:evenodd;stroke:#005c94;stroke-width:2.02209;stroke-linecap:butt;stroke-linejoin:miter;stroke-miterlimit:4;stroke-dasharray:none;stroke-opacity:1;marker-end:url(#Arrow1Mend-0)"
         d="m 477.27071,95.119884 1.14741,-50.987099"
         id="path1191-9"
         inkscape:connector-type="polyline"
         inkscape:connector-curvature="0"
         inkscape:export-xdpi="300"
         inkscape:export-ydpi="300" />
      <text
         xml:space="preserve"
         id="text999-8-7-1"
         style="font-style:normal;font-variant:normal;font-weight:normal;font-stretch:normal;font-size:10.6667px;line-height:1.25;font-family:Gentium;-inkscape-font-specification:'Gentium, Normal';font-variant-ligatures:normal;font-variant-caps:normal;font-variant-numeric:normal;font-variant-east-asian:normal;letter-spacing:0px;word-spacing:0px;white-space:pre;shape-inside:url(#rect1001-3-1-2);fill:#ff6600;fill-opacity:1;fill-rule:evenodd;stroke:none;stroke-width:1;"
         transform="matrix(2.0189149,0,0,2.0189149,10.853843,-254.48139)"
         inkscape:export-xdpi="300"
         inkscape:export-ydpi="300"><tspan
           x="238.18555"
           y="110.79438"><tspan
             style="fill:#ff6600">മഞ്ജരി</tspan></tspan></text>
      <path
         style="fill:none;fill-rule:evenodd;stroke:#005c94;stroke-width:2.02209;stroke-linecap:butt;stroke-linejoin:miter;stroke-miterlimit:4;stroke-dasharray:none;stroke-opacity:1;marker-end:url(#Arrow1Mend-4)"
         d="m 476.03859,-10.634415 1.1474,-50.987093"
         id="path1191-2"
         inkscape:connector-type="polyline"
         inkscape:connector-curvature="0"
         inkscape:export-xdpi="300"
         inkscape:export-ydpi="300" />
      <text
         xml:space="preserve"
         id="text999-8-7-1-1"
         style="font-style:normal;font-variant:normal;font-weight:normal;font-stretch:normal;font-size:10.6667px;line-height:1.25;font-family:Manjari;-inkscape-font-specification:'Manjari, Normal';font-variant-ligatures:normal;font-variant-caps:normal;font-variant-numeric:normal;font-variant-east-asian:normal;letter-spacing:0px;word-spacing:0px;white-space:pre;shape-inside:url(#rect1001-3-1-2-3);fill:#005c94;fill-opacity:1;fill-rule:evenodd;stroke:none;stroke-width:1;"
         transform="matrix(2.0189149,0,0,2.0189149,-261.25273,-53.290253)"
         inkscape:export-xdpi="300"
         inkscape:export-ydpi="300"><tspan
           x="238.18555"
           y="109.75697"><tspan
             style="font-style:normal;font-variant:normal;font-weight:normal;font-stretch:normal;font-size:10.6667px;font-family:Manjari;-inkscape-font-specification:'Manjari, Normal';font-variant-ligatures:normal;font-variant-caps:normal;font-variant-numeric:normal;font-variant-east-asian:normal;fill:#005c94">ഇന്റർനെറ്റ്</tspan></tspan></text>
      <text
         xml:space="preserve"
         id="text999-8-7-5-4"
         style="font-style:normal;font-variant:normal;font-weight:normal;font-stretch:normal;font-size:10.6667px;line-height:1.25;font-family:'Fira Code';-inkscape-font-specification:'Fira Code, Normal';font-variant-ligatures:normal;font-variant-caps:normal;font-variant-numeric:normal;font-variant-east-asian:normal;letter-spacing:0px;word-spacing:0px;white-space:pre;shape-inside:url(#rect1001-3-1-0-9);fill:#2d2d2d;fill-opacity:1;fill-rule:evenodd;stroke:none;stroke-width:1;"
         transform="matrix(2.0189149,0,0,2.0189149,-121.39158,-92.302039)"
         inkscape:export-xdpi="300"
         inkscape:export-ydpi="300"><tspan
           x="238.18555"
           y="110.64586"><tspan
             style="font-style:normal;font-variant:normal;font-weight:normal;font-stretch:normal;font-size:10.6667px;font-family:'Fira Code';-inkscape-font-specification:'Fira Code, Normal';font-variant-ligatures:normal;font-variant-caps:normal;font-variant-numeric:normal;font-variant-east-asian:normal;fill:#2d2d2d">0D36 0D41 0D2D 0D30 </tspan></tspan><tspan
           x="238.18555"
           y="123.97924"><tspan
             style="font-style:normal;font-variant:normal;font-weight:normal;font-stretch:normal;font-size:10.6667px;font-family:'Fira Code';-inkscape-font-specification:'Fira Code, Normal';font-variant-ligatures:normal;font-variant-caps:normal;font-variant-numeric:normal;font-variant-east-asian:normal;fill:#2d2d2d">0D3E 0D24 0D4D 0D30 </tspan></tspan><tspan
           style="visibility:hidden"
           x="238.18555"
           y="146.23571"><tspan
             dx="0 6.5641074 6.5641074 6.5641069"
             style="font-style:normal;font-variant:normal;font-weight:normal;font-stretch:normal;font-size:10.6667px;font-family:'Fira Code';-inkscape-font-specification:'Fira Code, Normal';font-variant-ligatures:normal;font-variant-caps:normal;font-variant-numeric:normal;font-variant-east-asian:normal;fill:#2d2d2d">0D3F</tspan></tspan></text>
    </g>
  </g>
</svg>
